<?xml version="1.0" encoding="utf-8"?>
<!-- Generator: Adobe Illustrator 17.1.0, SVG Export Plug-In . SVG Version: 6.00 Build 0)  -->
<!DOCTYPE svg PUBLIC "-//W3C//DTD SVG 1.1//EN" "http://www.w3.org/Graphics/SVG/1.1/DTD/svg11.dtd">
<svg version="1.1" id="Layer_1" xmlns="http://www.w3.org/2000/svg" xmlns:xlink="http://www.w3.org/1999/xlink" x="0px" y="0px"
	 viewBox="0 0 100 100" enable-background="new 0 0 100 100" xml:space="preserve">
<path fill="#FFFFFF" d="M50,0C22.4,0,0,20.6,0,45.9c0,11.8,4.8,22.8,13.5,31.4C10.1,86.1,7,89.5,5.6,89.7c-1.3,0.1-2.4,1.2-2.4,2.6
	c-0.1,1.3,0.8,2.5,2.1,2.8c0.1,0,2.7,0.6,6.5,0.6c5.6,0,13.5-1.2,20.5-6.9c5.6,2,11.6,2.9,17.6,2.9c27.6,0,50-20.6,50-45.9
	S77.5,0,50,0z M23.1,60.2c-3,0-5.9-0.8-7.4-1.6l1.2-4.9c1.6,0.8,4,1.6,6.6,1.6c2.7,0,4.1-1.1,4.1-2.8c0-1.6-1.2-2.6-4.4-3.7
	c-4.3-1.5-7.2-3.9-7.2-7.7c0-4.5,3.7-7.9,9.9-7.9c2.9,0,5.1,0.6,6.7,1.3l-1.3,4.8c-1-0.5-2.9-1.2-5.5-1.2S22,39.3,22,40.7
	c0,1.7,1.5,2.4,4.8,3.7c4.6,1.7,6.8,4.1,6.8,7.8C33.7,56.5,30.3,60.2,23.1,60.2z M60.1,59.8l-0.4-10c-0.1-3.1-0.2-6.9-0.2-10.7h-0.1
	c-0.8,3.3-1.9,7.1-2.9,10.1l-3.2,10.2h-4.6l-2.8-10.1c-0.9-3.1-1.7-6.8-2.4-10.2h-0.1c-0.2,3.5-0.3,7.6-0.5,10.8l-0.5,9.9h-5.5
	l1.7-26.1h7.9l2.6,8.7c0.8,3,1.6,6.3,2.2,9.3h0.1c0.7-3,1.6-6.5,2.5-9.4l2.8-8.7h7.7l1.4,26.1L60.1,59.8L60.1,59.8z M80.6,44.3
	c4.6,1.7,6.8,4.1,6.8,7.8c0,4.4-3.4,8.1-10.5,8.1c-3,0-5.9-0.8-7.4-1.6l1.2-4.9c1.6,0.8,4,1.6,6.6,1.6c2.7,0,4.1-1.1,4.1-2.8
	c0-1.6-1.2-2.6-4.4-3.7c-4.3-1.5-7.2-3.9-7.2-7.7c0-4.5,3.7-7.9,9.9-7.9c2.9,0,5.1,0.6,6.7,1.3L85,39.4c-1-0.5-2.9-1.2-5.5-1.2
	c-2.6,0-3.8,1.2-3.8,2.5C75.8,42.3,77.2,43.1,80.6,44.3z"/>
</svg>
